07376fc12ab925e38aebcd8aa71b4900efa96834bbc8daad01
f128ca843b06995ff6257919fa35bc4be0251f9ade6b58508e
26b079bba3f89533f631b594a9cb54afd0b2bfaf3055f5802f
bd03017e22c980fee002938bdc954265d30c40205255586897
f2823a616e3bda38eb86ca8e8fbd415d2990ae94fee83dd7f5
db8e540646a58182f954f82687bb0ca3a2ab0bb3538c7e0d2e
875deef50ba22928b5fe10960b394f09f8c01334f2d83a1c9b
7e687c7fa23d8b704773a9af7affe54a7b6b95100183ba81ab
9b1fc48e8ba60d18166d6bc7f8d6a05d38d3fe40f920f504e4
941db3cd86d1503d32c83b7a56d8f6b8792a3789cfae91534f
57e88ffbdefccfe5ea286dafdb42eed91a136ae0acafd316f5
84f9f5e3ff724d82b43ec743087a5f7e8c47c7c61a66df31a5
9a7ec02dddfcb804d8de197d50bc3a7bf6891a394c34e9c10f
b80ad6e2c997e69ae94038654ef2e730d7800ed8e12f55cb4b
b847ec2fa8770a1c3a596fc022fbb8f0d9f5942d4c38ab709d
567dbf84836cbf30f5bcc4b461402c9facccaff955e0c35bbf
d5433dac71e96e7be2d384b916ba43fbb9246722f0f1b9c586
3fc2231e84ec109be4337121e04782eca444c8e1bce99fed79
35e2e28e0ca6e74701134b113b22926f3af34f82a5129eced1
46c1dfeaff0c9f9600c987242beeb42c51769001a4ba039b9e
bed53421e46f0d3cf011631bcc2a0577241d2946254c5f4bd4
f127c41e4f7a8929a3b25f258ba694f98523f8d86a306f8915
fd74b6343e752124114b49815981d3d13de8a4d55b675b645e
5e35ed6dcb863f86ed162edb0a2f9b0e3948312ffdb24c4d5d
c409a98b813ee1bf074565d8914ba76b29d37ce07aa09dbf23
f0aceae2433a9758a323da53a6372502258e0eb12d5c3d0e8a
b4400b8e0637b3c773155b67bd59522ccc38e7100cef57f4a2
d6c86b1c42eefc0ebb66d0797dc63e51097ac11522bc402296
8bfb30498509abb687692dc2f68ca4d92d9ce8211dfdbb44f8
896a683db1e9c3dc3cd61a35f88f70bc5ff728efb2973bceb6
344c7074832b929bc4dfc3c746802ea3766d6e35244108d712
ba089d4596765c26b79b25af436a6c5f464db69a506bacbe34
3b1590539a1f8ca0ff97fce266b3313c621b551d73e1fcbeff
314460388b269637a31797ba144abac1b060df8fb2b76d6847
6b1fab7e917e59358ab1301a88337eff0057f4e417e5d06c15
a0ef1ed1c9e003461c3c338623d9c218805975ae0b05a15f4c
a707141958cba0500cd1c4a54e3c8fa3e5f96b0a7525c3d45a
034c2de3be89a617a7917e4b89f754c0486248d827e4d5835d
dc51b3eb82c7fb1193e52b23d5d854d2b380d6062b10859345
88fc37ab4db44ca2276b4170d1334ef7f4f1a7f3dbfae0b3af
