74e87884cf08d92b147910b4af6477f72e795af845ce48d195
8188548e5934bf544cfc9506e24abab63a2947e9239181a29f
3da0638caabfec36cb70f868730e83652dcf30c5a7c6f4c00e
2515bc402efbbe0431638dae2b9dea409d9eb50f9d68cb2364
bc813f40510110b17a45ffd16171e65b5e8980fe718f079a31
253d14a609ef7a4ee7437170b69afe91d902852a3aaa5f5106
bcf310e2d35b43c248d64c7e86fa5959434037127769353dec
b136e763fbd17b63e1341edd2a9a918357517518bd102d9e60
f89a037ce2287bdb8e4a26601a6d37813270ea284533c50c9b
49ada6b60cc145c1ff5e12ddf7c8fc52d3c4f99f5935fa9c2f
aef73d40df54aaa74d9ef3f5f5ec305b01d82892113459c48b
636033d2810bbfb34ab4643bd32f7f2f3e28b415bcdd5e84da
ce6bc87c534979db693c554ea173db29c53226b4c65e732cf7
166096e922b52207ab1156bfe6a0ef883e20fc3952e2f87c49
53b527ed0221fb67e7ddeae8f39b49b98ddde940e5a5494e93
019e73d6108998183586585bcb2e6700169e8094a7ed4d9c21
5ac153a535c6300655c7f7a77d1d7b3270e032992a7b0aa0fe
6233acb81dc7ab910e9721181b0bcda45d872a23730226ec80
9f1b30a9ceb16b42f5811a8ff7568b62af7ebd7cfc7bcfd40d
1a657ab9ce670020a39e1a7e30918e7e63f3c28309cc639c0d
6ec9c36b70ab86584405cc0d480432572d13757c35fac09153
5dfa45d9273be1d7c7c3c71da84fc45070f904260f9bf24672
8ba55a05ef5b91dbfba3c0125c5f4e1951324127eb2b14767b
9784b085e0a7cd4ec29966df3b2d1604215b6278e2d0fb1177
0166bb48ed53a5d9509c43933405d65baa326e71ad30b9a0cf
e28ec6cdb849f03b19b08c67e75af690b82cd7cd38f30bbe70
d83902ca895c49c8a728a79be691e3d75dfa78f4d3b1a2347d
a125be512a13d1b2c39a43577f87871400635f2042b1d138a8
9815c29eae06d111dff756ab172d9c104e762a3905ce7062a2
8ae03cc3c45616bb362895c701eba117195651838c03cd6a40
d8736648481aa239bc378e6b964087a0d0bccbf0ae6efc416c
1d67aae09670d8d4f31689e82d177396ed8873301b95582ffd
3631fe77ee2a234e04bd12fdaddc770e44bb8560e34092952a
c7e2c5afba4ec829c09a7864a41ded8766c26e9cbff9b7bc5a
94ee0eb760001d7adbf107cf8342702db07a7696d2483d4fbb
dcd48d9436a971d11e19c1bc9f9fb61fb2835418af4c8c4f6c
9816ca57818fff2564837f336acb729b4e728cadacd8810c09
03f82a969405935c00319ed5c0ecb9985cb9e8cae64333940c
4fee96ca82035b33f9fa2c6eb50c62b054881409213506cd58
d54a520a499c641a3a5ac4dde7eba21ffed6ee54430c1369fd
